{
  "openapi" : "3.0.1",
  "info" : {
    "title" : "Pets",
    "version" : "0.1.0"
  },
  "servers" : [ {
    "url" : "http://localhost:10010/api/v1"
  } ],
  "paths" : {
    "/cats" : {
      "get" : {
        "description" : "CAts",
        "operationId" : "cats",
        "parameters" : [ {
          "name" : "name",
          "in" : "query",
          "description" : "The name of the cats",
          "schema" : {
            "type" : "string"
          }
        } ],
        "responses" : {
          "200" : {
            "description" : "Success",
            "content" : {
              "application/json" : {
                "schema" : {
                  "$ref" : "#/components/schemas/CatsResponse"
                }
              }
            }
          },
          "default" : {
            "description" : "Error",
            "content" : {
              "application/json" : {
                "schema" : {
                  "$ref" : "#/components/schemas/ErrorResponse"
                }
              }
            }
          }
        }
      },
      "x-swagger-router-controller" : "pets-controller"
    },
    "/dogs" : {
      "get" : {
        "description" : "CAts",
        "operationId" : "dogs",
        "parameters" : [ {
          "name" : "name",
          "in" : "query",
          "description" : "The name of the cats",
          "schema" : {
            "type" : "string"
          }
        } ],
        "responses" : {
          "200" : {
            "description" : "Success",
            "content" : {
              "application/json" : {
                "schema" : {
                  "$ref" : "#/components/schemas/DogsResponse"
                }
              }
            }
          },
          "default" : {
            "description" : "Error",
            "content" : {
              "application/json" : {
                "schema" : {
                  "$ref" : "#/components/schemas/ErrorResponse"
                }
              }
            }
          }
        }
      },
      "x-swagger-router-controller" : "pets-controller"
    },
    "/swagger" : {
      "x-swagger-pipe" : "swagger_raw"
    }
  },
  "components" : {
    "schemas" : {
      "CatsResponse" : {
        "type" : "array",
        "items" : {
          "$ref" : "#/components/schemas/CatsItemResponse"
        }
      },
      "CatsItemResponse" : {
        "type" : "object",
        "properties" : {
          "color" : {
            "type" : "string"
          },
          "name" : {
            "type" : "string"
          },
          "img" : {
            "type" : "string"
          }
        }
      },
      "DogsResponse" : {
        "type" : "array",
        "items" : {
          "$ref" : "#/components/schemas/DogsItemResponse"
        }
      },
      "DogsItemResponse" : {
        "type" : "object",
        "properties" : {
          "price" : {
            "type" : "number"
          },
          "name" : {
            "type" : "string"
          },
          "fashion" : {
            "type" : "string"
          },
          "image" : {
            "type" : "string"
          },
          "time" : {
            "type" : "number"
          },
          "number" : {
            "type" : "number"
          }
        }
      },
      "ErrorResponse" : {
        "required" : [ "message" ],
        "type" : "object",
        "properties" : {
          "message" : {
            "type" : "string"
          }
        }
      }
    }
  }
}